-- Merging decision tree log ---
manifest
ADDED from /Users/desarollo/Documents/MisPlugins/video-player/android/src/main/AndroidManifest.xml:1:1-3:12
INJECTED from /Users/desarollo/Documents/MisPlugins/video-player/android/src/main/AndroidManifest.xml:1:1-3:12
INJECTED from /Users/desarollo/Documents/MisPlugins/video-player/android/src/main/AndroidManifest.xml:1:1-3:12
	package
		ADDED from /Users/desarollo/Documents/MisPlugins/video-player/android/src/main/AndroidManifest.xml:2:3-43
		INJECTED from /Users/desarollo/Documents/MisPlugins/video-player/android/src/main/AndroidManifest.xml
		INJECTED from /Users/desarollo/Documents/MisPlugins/video-player/android/src/main/AndroidManifest.xml
	xmlns:android
		ADDED from /Users/desarollo/Documents/MisPlugins/video-player/android/src/main/AndroidManifest.xml:1:11-69
uses-sdk
INJECTED from /Users/desarollo/Documents/MisPlugins/video-player/android/src/main/AndroidManifest.xml reason: use-sdk injection requested
INJECTED from /Users/desarollo/Documents/MisPlugins/video-player/android/src/main/AndroidManifest.xml
INJECTED from /Users/desarollo/Documents/MisPlugins/video-player/android/src/main/AndroidManifest.xml
	android:minSdkVersion
		INJECTED from /Users/desarollo/Documents/MisPlugins/video-player/android/src/main/AndroidManifest.xml
		ADDED from /Users/desarollo/Documents/MisPlugins/video-player/android/src/main/AndroidManifest.xml
		INJECTED from /Users/desarollo/Documents/MisPlugins/video-player/android/src/main/AndroidManifest.xml
